{"type":"FeatureCollection","features":[{"type":"Feature","properties":{"ID_0":182,"ISO":"PRT","NAME_0":"Portugal","ID_1":1,"NAME_1":"Évora","TYPE_1":"Distrito","ENGTYPE_1":"District","NL_NAME_1":"","VARNAME_1":""},"geometry":{"type":"Polygon","coordinates":[[[-7.20378303527832,38.75151062011719],[-7.260046005249023,38.722942352295036],[-7.272511005401611,38.638404846191406],[-7.263917922973576,38.587867736816406],[-7.30337381362915,38.54310226440441],[-7.320826053619385,38.48537826538086],[-7.317911148071289,38.44009017944347],[-7.2843470573424725,38.42317962646496],[-7.2481889724731445,38.36951446533203],[-7.142959117889404,38.26171875],[-7.1077752113342285,38.18798828125006],[-7.152394771575928,38.17347717285162],[-7.260647773742619,38.28297424316412],[-7.280370235443115,38.33011627197277],[-7.335168838500863,38.32130432128912],[-7.394896984100285,38.29490661621094],[-7.4135308265686035,38.264011383056754],[-7.497902870178166,38.18846511840826],[-7.580321788787842,38.194175720214844],[-7.635105133056641,38.209526062011776],[-7.669629096984863,38.20022583007824],[-7.758947849273682,38.24647140502941],[-7.839065074920654,38.2516441345216],[-7.980532169341927,38.31709289550787],[-8.019946098327637,38.300693511962834],[-8.043713569641056,38.32608795166021],[-8.13115119934082,38.31288528442394],[-8.164377212524357,38.31984710693371],[-8.197738647460938,38.34259033203125],[-8.322565078735352,38.37220382690441],[-8.283736228942871,38.4120979309082],[-8.335991859435978,38.506958007812614],[-8.369127273559513,38.545745849609375],[-8.423136711120549,38.520984649658146],[-8.47592830657959,38.516769409179744],[-8.497563362121525,38.548820495605526],[-8.53238391876215,38.52815246582031],[-8.639120101928654,38.54949188232433],[-8.656537055969181,38.60781478881836],[-8.569088935851994,38.67718887329113],[-8.531220436096135,38.69186401367193],[-8.490978240966797,38.76131057739252],[-8.54680347442627,38.7634391784668],[-8.500376701354924,38.807479858398494],[-8.471081733703613,38.79390335083019],[-8.419169425964355,38.8376579284668],[-8.380048751831055,38.853458404541016],[-8.338020324707031,38.84022903442394],[-8.301423072814941,38.86032485961914],[-8.249606132507324,38.817794799804744],[-8.221803665161133,38.82861328125],[-8.175615310668888,38.78266906738287],[-8.154566764831486,38.80924224853527],[-8.184583663940373,38.84926605224615],[-8.159498214721623,38.86513900756836],[-8.269928932189885,38.90717315673828],[-8.24293327331543,38.93814849853521],[-8.227920532226506,38.98738861083996],[-8.152009010314941,39.02693176269531],[-8.120295524597168,39.00399017333996],[-8.04761600494379,39.00828933715832],[-8.013733863830566,38.9813804626466],[-8.009519577026367,38.945182800293026],[-7.925670146942139,38.97331619262701],[-7.875960826873779,38.908359527588004],[-7.823974132537842,38.89935302734375],[-7.698064804077148,38.91244506835949],[-7.625444889068547,38.92752075195324],[-7.604299068450928,38.953781127929744],[-7.564651966094914,38.95245361328131],[-7.491979122161865,38.98911666870117],[-7.452898979187012,38.96441650390625],[-7.466124057769775,38.926036834716854],[-7.422935962676945,38.90348434448248],[-7.419244766235352,38.848217010498104],[-7.395896911621094,38.81185913085943],[-7.346802234649658,38.7981224060058],[-7.325654029846191,38.82519149780285],[-7.245706081390381,38.84785842895519],[-7.211150169372559,38.80785751342768],[-7.2324109077453045,38.78516387939459],[-7.20378303527832,38.75151062011719]]]}},
{"type":"Feature","properties":{"ID_0":182,"ISO":"PRT","NAME_0":"Portugal","ID_1":2,"NAME_1":"Aveiro","TYPE_1":"Distrito","ENGTYPE_1":"District","NL_NAME_1":"","VARNAME_1":""},"geometry":{"type":"Polygon","coordinates":[[[-8.263980865478459,41.065856933593864],[-8.237236976623535,41.017833709716854],[-8.14290809631342,40.978557586670036],[-8.127950668334904,40.89814758300787],[-8.23675537109375,40.827491760253906],[-8.269071578979435,40.76754760742199],[-8.333592414855957,40.737007141113395],[-8.297637939453068,40.69433975219732],[-8.294792175292912,40.64567947387701],[-8.245376586914006,40.61640548706049],[-8.308414459228459,40.59640884399414],[-8.289183616638184,40.568786621093864],[-8.282843589782658,40.50917053222656],[-8.324973106384277,40.491794586181754],[-8.318705558776799,40.45672988891613],[-8.354867935180664,40.408855438232536],[-8.356213569641056,40.36722946166998],[-8.409584999084473,40.323860168457145],[-8.484992027282715,40.31534194946295],[-8.482975959777775,40.38877487182623],[-8.517681121826172,40.42048645019531],[-8.579364776611271,40.41238021850586],[-8.585335731506348,40.479579925537166],[-8.620631217956486,40.48211669921881],[-8.631159782409668,40.43439865112316],[-8.677765846252441,40.43491363525385],[-8.784024238586426,40.52036666870123],[-8.753471374511719,40.64708328247082],[-8.697639465332031,40.80374908447277],[-8.660707473754883,40.9292449951173],[-8.644963264465332,41.015972137451286],[-8.606048583984318,41.02569580078131],[-8.488737106323242,41.01289749145519],[-8.44873046875,41.05346298217779],[-8.352152824401855,41.04010391235357],[-8.287214279174748,41.07893753051752],[-8.263980865478459,41.065856933593864]]]}},
{"type":"Feature","properties":{"ID_0":182,"ISO":"PRT","NAME_0":"Portugal","ID_1":3,"NAME_1":"Azores","TYPE_1":"Regiões autônoma","ENGTYPE_1":"Autonomous region","NL_NAME_1":"","VARNAME_1":"Açores"},"geometry":{"type":"MultiPolygon","coordinates":[[[[-25.08909606933588,37.01562118530279],[-25.052978515625,37.01032638549816],[-25.02061653137207,36.96474075317394],[-25.017665863037053,36.93061447143566],[-25.067209243774357,36.927692413330135],[-25.092344284057617,36.9486198425293],[-25.14219856262207,36.93940353393566],[-25.185560226440373,36.98327255249035],[-25.163757324218693,37.00540161132818],[-25.08909606933588,37.01562118530279]]],[[[-25.438690185546818,37.82532882690441],[-25.403654098510685,37.82637786865246],[-25.324609756469613,37.86166763305664],[-25.149425506591797,37.84946823120117],[-25.134651184081974,37.8065071105957],[-25.15013504028309,37.75743103027344],[-25.215972900390625,37.73556137084961],[-25.252468109130746,37.746192932128906],[-25.423685073852482,37.71474075317394],[-25.501926422119084,37.707492828369254],[-25.56398200988758,37.738136291503906],[-25.632041931152344,37.747253417968864],[-25.686182022094727,37.731826782226506],[-25.799640655517578,37.80124664306635],[-25.841218948364144,37.827247619628906],[-25.855018615722656,37.8597030639649],[-25.78179740905756,37.90968704223627],[-25.721096038818303,37.88640213012707],[-25.693273544311467,37.84359741210932],[-25.58397483825678,37.812808990478516],[-25.486709594726562,37.842330932617244],[-25.438690185546818,37.82532882690441]]],[[[-28.41545867919922,38.561363220214844],[-28.244159698486328,38.49949264526367],[-28.172420501708928,38.45656585693371],[-28.057422637939453,38.44248199462902],[-28.030160903930607,38.41186904907238],[-28.082580566406193,38.399711608886776],[-28.17859268188471,38.409591674804744],[-28.24072837829584,38.38227081298828],[-28.275583267211914,38.41270065307617],[-28.445604324340707,38.420291900634766],[-28.51621437072754,38.45111083984375],[-28.540658950805607,38.4853134155274],[-28.538139343261662,38.52996826171881],[-28.478147506713867,38.56061172485363],[-28.41545867919922,38.561363220214844]]],[[[-28.715118408203125,38.6438255310058],[-28.60533905029297,38.59975433349615],[-28.630584716796875,38.52478027343756],[-28.72119712829584,38.51743698120123],[-28.759300231933537,38.55937957763683],[-28.818706512451115,38.58319854736334],[-28.758150100708008,38.61034393310541],[-28.715118408203125,38.6438255310058]]],[[[-28.317840576171818,38.75604629516607],[-28.024953842163086,38.67207336425787],[-27.977739334106445,38.64404296875006],[-27.77756690979004,38.56436538696295],[-27.774974822998047,38.53633880615229],[-27.827892303466797,38.53348922729498],[-27.942989349365234,38.58925247192394],[-28.025098800659123,38.601573944091854],[-28.217220306396428,38.6810417175293],[-28.317840576171818,38.75604629516607]]],[[[-27.25908851623535,38.80315017700195],[-27.13085746765131,38.781192779541016],[-27.06208038330078,38.759628295898494],[-27.080183029174805,38.645473480224666],[-27.165842056274357,38.6536598205567],[-27.278087615966797,38.65238189697271],[-27.35286903381342,38.68759918212885],[-27.38056564331049,38.74659729003906],[-27.36287117004389,38.78159332275402],[-27.25908851623535,38.80315017700195]]],[[[-28.03047752380371,39.09637069702154],[-27.997707366943303,39.0883026123048],[-27.949798583984375,39.0176620483399],[-27.97188949584961,39.00873947143555],[-28.04775047302246,39.03361511230469],[-28.072107315063477,39.065547943115234],[-28.03047752380371,39.09637069702154]]],[[[-31.158523559570312,39.50241851806635],[-31.12433433532715,39.45270919799816],[-31.159717559814453,39.3846893310548],[-31.24770164489746,39.374771118164176],[-31.262424468994027,39.418197631835994],[-31.257217407226562,39.4880828857423],[-31.232059478759766,39.51355361938488],[-31.158523559570312,39.50241851806635]]]]}},
{"type":"Feature","properties":{"ID_0":182,"ISO":"PRT","NAME_0":"Portugal","ID_1":4,"NAME_1":"Beja","TYPE_1":"Distrito","ENGTYPE_1":"District","NL_NAME_1":"","VARNAME_1":""},"geometry":{"type":"Polygon","coordinates":[[[-7.1077752113342285,38.18798828125006],[-7.084076881408691,38.16943359375],[-7.011837959289494,38.203315734863224],[-6.942316055297795,38.21809387207037],[-6.969247817993164,38.1604843139649],[-6.957923889160099,38.13813018798828],[-6.989850997924805,38.089969635009766],[-7.007203102111816,38.020755767822266],[-7.044735908508244,38.01399612426769],[-7.108306884765568,38.040939331054744],[-7.158813953399658,37.99389648437494],[-7.20084285736084,38.00319671630871],[-7.261834144592285,37.97747039794933],[-7.254800796508789,37.92370223999029],[-7.324351787567139,37.81582641601568],[-7.422598838806152,37.7546005249024],[-7.447615146636906,37.69788360595703],[-7.444843769073486,37.6639404296875],[-7.522677898406926,37.55307388305664],[-7.512472152709961,37.52630233764643],[-7.574721813201904,37.52899169921881],[-7.62022686004633,37.48988723754883],[-7.662359237670842,37.50577163696289],[-7.732138156890869,37.496685028076286],[-7.855494022369328,37.437980651855526],[-7.892955780029297,37.43381500244146],[-7.93809700012207,37.404045104980526],[-8.000263214111328,37.39752578735363],[-8.005199432373047,37.35839080810547],[-8.065702438354492,37.31897354125971],[-8.158059120178166,37.33362579345703],[-8.274690628051758,37.38862609863287],[-8.277545928955078,37.42470932006836],[-8.319133758544922,37.43832015991222],[-8.417367935180607,37.41976165771496],[-8.456412315368596,37.37484359741222],[-8.520509719848633,37.381618499755916],[-8.573291778564453,37.41206741333008],[-8.623395919799805,37.39942932128906],[-8.733508110046387,37.39519119262701],[-8.753546714782715,37.430335998535156],[-8.796324729919434,37.4429550170899],[-8.792097091674691,37.558235168457145],[-8.819279670715332,37.598445892333984],[-8.79545593261713,37.67561721801769],[-8.809802055358887,37.741512298583984],[-8.792975425720158,37.81956863403326],[-8.726470947265625,37.80862808227539],[-8.68343734741211,37.75327301025396],[-8.58765983581543,37.756965637207145],[-8.583757400512695,37.79937744140625],[-8.551310539245549,37.84729385375988],[-8.462068557739258,37.86560821533209],[-8.33613109588623,37.864574432373104],[-8.299488067626953,37.89910888671875],[-8.295440673828068,37.993217468261776],[-8.347538948059025,38.01722717285156],[-8.40774917602539,38.06639862060547],[-8.336983680725098,38.142745971679744],[-8.2912015914917,38.13909912109375],[-8.284335136413574,38.1865806579591],[-8.129805564880371,38.22395706176769],[-8.129705429077148,38.26630401611328],[-8.164377212524357,38.31984710693371],[-8.13115119934082,38.31288528442394],[-8.043713569641056,38.32608795166021],[-8.019946098327637,38.300693511962834],[-7.980532169341927,38.31709289550787],[-7.839065074920654,38.2516441345216],[-7.758947849273682,38.24647140502941],[-7.669629096984863,38.20022583007824],[-7.635105133056641,38.209526062011776],[-7.580321788787842,38.194175720214844],[-7.497902870178166,38.18846511840826],[-7.4135308265686035,38.264011383056754],[-7.394896984100285,38.29490661621094],[-7.335168838500863,38.32130432128912],[-7.280370235443115,38.33011627197277],[-7.260647773742619,38.28297424316412],[-7.152394771575928,38.17347717285162],[-7.1077752113342285,38.18798828125006]]]}},
{"type":"Feature","properties":{"ID_0":182,"ISO":"PRT","NAME_0":"Portugal","ID_1":5,"NAME_1":"Braga","TYPE_1":"Distrito","ENGTYPE_1":"District","NL_NAME_1":"","VARNAME_1":""},"geometry":{"type":"Polygon","coordinates":[[[-7.974152088165283,41.37519454956055],[-7.9895548820495605,41.3466033935548],[-8.035721778869629,41.318798065185604],[-8.086494445800724,41.32934951782238],[-8.146122932434025,41.36417770385748],[-8.165824890136719,41.40029907226568],[-8.222992897033635,41.40994262695324],[-8.303301811218262,41.342960357666016],[-8.328076362609806,41.36577224731457],[-8.394207000732422,41.361892700195256],[-8.455116271972543,41.375629425048885],[-8.501439094543457,41.36833953857433],[-8.537215232849121,41.34300231933588],[-8.602392196655217,41.34556961059582],[-8.650121688842773,41.419689178466854],[-8.746247291564941,41.46859359741222],[-8.775138854980412,41.47123718261719],[-8.80986213684082,41.612136840820256],[-8.756795883178654,41.6143913269043],[-8.724178314208984,41.63382720947277],[-8.643220901489201,41.6543807983399],[-8.604116439819279,41.634319305420036],[-8.521745681762695,41.67958068847662],[-8.51372241973877,41.721305847168026],[-8.414167404174805,41.758998870849666],[-8.306785583496037,41.76118087768566],[-8.164990425109863,41.818115234375114],[-8.093894004821777,41.80803680419922],[-8.05121994018549,41.81947326660156],[-8.06120586395258,41.76358032226557],[-8.094255447387695,41.70740890502924],[-7.997269153594857,41.687831878662166],[-8.00299930572504,41.62088394165045],[-7.96646785736084,41.60392379760748],[-7.879362106323242,41.58823394775402],[-7.829501152038574,41.60222244262701],[-7.810657024383545,41.57334518432617],[-7.861333847045898,41.51178359985357],[-7.938171863555908,41.47735595703131],[-7.94167518615717,41.42998123168951],[-7.974152088165283,41.37519454956055]]]}},
{"type":"Feature","properties":{"ID_0":182,"ISO":"PRT","NAME_0":"Portugal","ID_1":6,"NAME_1":"Bragança","TYPE_1":"Distrito","ENGTYPE_1":"District","NL_NAME_1":"","VARNAME_1":"Braganza"},"geometry":{"type":"Polygon","coordinates":[[[-6.931346893310547,41.02939987182617],[-7.010475158691349,41.04075622558594],[-7.101256847381535,41.07991027832037],[-7.087913990020695,41.131862640380916],[-7.147982120513916,41.156261444091854],[-7.1611590385435875,41.127719879150504],[-7.249491214752197,41.14499282836914],[-7.304561138153019,41.13951873779297],[-7.356201171875,41.147487640380916],[-7.388576984405518,41.19287490844732],[-7.431878089904785,41.21079635620117],[-7.348082065582275,41.35162734985363],[-7.365305900573674,41.4404182434082],[-7.30764102935791,41.4612770080567],[-7.283936023712158,41.51562118530279],[-7.229093074798527,41.52279281616211],[-7.2583818435668945,41.5631942749024],[-7.24289083480835,41.6421470642091],[-7.171195030212402,41.7698974609375],[-7.208745002746582,41.80921554565441],[-7.200468063354492,41.87949752807617],[-7.173623085021973,41.91891479492193],[-7.18663215637207,41.96942901611328],[-7.141430854797306,41.990749359130916],[-7.076929092407227,41.9519309997558],[-6.944279193878174,41.94464874267578],[-6.821579933166447,41.94599533081066],[-6.81131982803339,41.99250793457031],[-6.76865816116333,41.984081268310604],[-6.750555992126408,41.94363403320307],[-6.699979782104492,41.933303833007926],[-6.599432945251351,41.94829177856457],[-6.545938968658447,41.930778503418026],[-6.5711541175842285,41.88348388671881],[-6.517614841461182,41.87507629394537],[-6.5439229011535645,41.78371047973633],[-6.564451217651367,41.7516708374024],[-6.54825305938715,41.68558120727545],[-6.5125341415404705,41.66120910644531],[-6.452342033386174,41.680896759033146],[-6.3546462059021,41.676391601562614],[-6.254438877105713,41.63298416137707],[-6.189142227172852,41.57481384277344],[-6.211725234985295,41.55913162231451],[-6.326849937438908,41.4163932800293],[-6.315393924713078,41.39005279541021],[-6.415255069732609,41.34794235229498],[-6.43761682510376,41.30530548095703],[-6.46883487701416,41.30126190185547],[-6.580511093139592,41.23904418945324],[-6.648365020751896,41.247539520263615],[-6.701457977294922,41.18027114868164],[-6.767859935760441,41.13482666015631],[-6.754182815551701,41.10404968261719],[-6.8089208602904705,41.03648757934576],[-6.931346893310547,41.02939987182617]]]}},
{"type":"Feature","properties":{"ID_0":182,"ISO":"PRT","NAME_0":"Portugal","ID_1":7,"NAME_1":"Castelo Branco","TYPE_1":"Distrito","ENGTYPE_1":"District","NL_NAME_1":"","VARNAME_1":""},"geometry":{"type":"Polygon","coordinates":[[[-6.951418876647892,40.25756454467779],[-7.012691974639836,40.22544860839855],[-7.01514196395874,40.13559722900402],[-6.940790176391545,40.11174392700195],[-6.880933761596566,40.041667938232536],[-6.875786781311035,39.99226760864269],[-6.903596878051701,39.87069702148449],[-6.987209796905461,39.81002044677746],[-6.976929187774601,39.77197647094738],[-7.0155229568481445,39.6704216003418],[-7.1513562202453045,39.6530647277832],[-7.251526832580566,39.66680526733404],[-7.331165790557861,39.64099121093756],[-7.401266098022461,39.646240234375],[-7.4542078971862225,39.66217803955084],[-7.541685104370117,39.663677215576115],[-7.579123973846379,39.65881347656244],[-7.648519039153996,39.62478256225586],[-7.673112869262695,39.64890670776373],[-7.7148070335387615,39.62668609619146],[-7.720778942108154,39.59509658813482],[-7.825108051299992,39.53736114501953],[-7.811983108520451,39.56780242919933],[-7.848848819732666,39.62367630004883],[-7.949749946594238,39.67945861816406],[-7.957581996917725,39.736911773681754],[-8.03884506225586,39.74301147460943],[-8.077296257019043,39.65876388549805],[-8.053985595703068,39.61698150634771],[-8.134341239929142,39.611263275146484],[-8.23394870758051,39.65125274658203],[-8.232072830200138,39.76279830932623],[-8.285090446472168,39.79576110839838],[-8.273726463317871,39.84314727783209],[-8.211854934692326,39.8503990173341],[-8.149169921874943,39.88534545898443],[-8.118680000305119,39.93408966064453],[-8.02992153167719,39.96529388427746],[-7.9526238441467285,40.00255966186535],[-7.9159131050109295,40.032772064208984],[-7.855222225189209,40.05902862548828],[-7.809142112731877,40.052333831787166],[-7.733414173126221,40.10384750366222],[-7.736053943633976,40.123958587646484],[-7.8075737953186035,40.181652069091854],[-7.782391071319523,40.2299156188966],[-7.733748912811279,40.236885070800895],[-7.709965229034424,40.260757446289176],[-7.661197185516357,40.271240234375114],[-7.612915039062443,40.32189559936535],[-7.537196159362793,40.317836761474666],[-7.51649284362793,40.366477966308594],[-7.461634159088078,40.401828765869084],[-7.38411808013916,40.38240814208996],[-7.327566146850586,40.41075515747082],[-7.270390987396183,40.408050537109375],[-7.273392200469971,40.348907470703125],[-7.319065093994084,40.28071212768549],[-7.235732078552246,40.26206588745117],[-7.205585956573486,40.28576660156244],[-7.168613910674992,40.26781463623058],[-7.102531909942513,40.32086181640619],[-7.082963943481445,40.27828598022461],[-7.013679027557373,40.29006576538086],[-6.951418876647892,40.25756454467779]]]}},
{"type":"Feature","properties":{"ID_0":182,"ISO":"PRT","NAME_0":"Portugal","ID_1":8,"NAME_1":"Coimbra","TYPE_1":"Distrito","ENGTYPE_1":"District","NL_NAME_1":"","VARNAME_1":""},"geometry":{"type":"Polygon","coordinates":[[[-8.356213569641056,40.36722946166998],[-8.297381401062012,40.35699462890631],[-8.250845909118652,40.323223114013786],[-8.20863246917719,40.34140396118164],[-8.11300945281971,40.34141540527355],[-8.038994789123535,40.386699676513786],[-8.003739356994572,40.39157104492199],[-7.930622100830078,40.429122924804744],[-7.884239196777287,40.47314834594738],[-7.828310966491642,40.49854278564459],[-7.796943187713566,40.45742034912104],[-7.842558860778809,40.433273315429744],[-7.797164916992131,40.40504455566412],[-7.7972679138183025,40.36164474487305],[-7.765120983123666,40.31658935546881],[-7.8181681632995605,40.28215026855469],[-7.782391071319523,40.2299156188966],[-7.8075737953186035,40.181652069091854],[-7.736053943633976,40.123958587646484],[-7.733414173126221,40.10384750366222],[-7.809142112731877,40.052333831787166],[-7.855222225189209,40.05902862548828],[-7.9159131050109295,40.032772064208984],[-7.9526238441467285,40.00255966186535],[-8.02992153167719,39.96529388427746],[-8.118680000305119,39.93408966064453],[-8.109966278076115,39.9715194702149],[-8.156821250915527,40.02735137939453],[-8.143742561340275,40.07278060913097],[-8.179098129272461,40.08973312377941],[-8.275806427001896,40.04540252685558],[-8.31871509552002,39.974678039550724],[-8.359291076660156,39.93560791015625],[-8.390396118164062,39.95122528076172],[-8.40221881866455,40.00093078613287],[-8.426013946533146,40.026557922363224],[-8.490616798400765,39.98611450195307],[-8.522838592529297,39.98361206054699],[-8.552368164062443,40.023960113525504],[-8.589536666870004,40.028099060058594],[-8.616233825683594,39.9915885925293],[-8.672210693359375,40.027206420898494],[-8.784306526184082,40.03632736206066],[-8.800462722778263,40.0125617980957],[-8.894027709960938,40.044345855713004],[-8.86180591583252,40.13763809204113],[-8.909583091735783,40.18569564819347],[-8.846733093261719,40.325382232666016],[-8.784024238586426,40.52036666870123],[-8.677765846252441,40.43491363525385],[-8.631159782409668,40.43439865112316],[-8.620631217956486,40.48211669921881],[-8.585335731506348,40.479579925537166],[-8.579364776611271,40.41238021850586],[-8.517681121826172,40.42048645019531],[-8.482975959777775,40.38877487182623],[-8.484992027282715,40.31534194946295],[-8.409584999084473,40.323860168457145],[-8.356213569641056,40.36722946166998]]]}},
{"type":"Feature","properties":{"ID_0":182,"ISO":"PRT","NAME_0":"Portugal","ID_1":9,"NAME_1":"Faro","TYPE_1":"Distrito","ENGTYPE_1":"District","NL_NAME_1":"","VARNAME_1":""},"geometry":{"type":"Polygon","coordinates":[[[-8.231427192687988,37.082988739013786],[-8.30213737487793,37.07260513305664],[-8.370861053466797,37.10169982910156],[-8.436620712280273,37.08536529541027],[-8.529503822326603,37.11568832397461],[-8.633194923400879,37.122360229492244],[-8.685745239257812,37.08535385131836],[-8.728114128112736,37.08614349365246],[-8.790863037109375,37.062419891357536],[-8.826665878295898,37.06413650512707],[-8.906367301940861,37.02367401123047],[-8.947675704956055,37.004169464111385],[-8.982839584350586,37.026325225830135],[-8.978628158569279,37.05605316162104],[-8.920798301696777,37.13596343994135],[-8.90636920928955,37.17233276367193],[-8.912751197814941,37.18381500244152],[-8.860407829284668,37.26838684082031],[-8.87478256225586,37.30195617675781],[-8.823183059692326,37.3876838684082],[-8.80689907073969,37.432044982910156],[-8.796324729919434,37.4429550170899],[-8.753546714782715,37.430335998535156],[-8.733508110046387,37.39519119262701],[-8.623395919799805,37.39942932128906],[-8.573291778564453,37.41206741333008],[-8.520509719848633,37.381618499755916],[-8.456412315368596,37.37484359741222],[-8.417367935180607,37.41976165771496],[-8.319133758544922,37.43832015991222],[-8.277545928955078,37.42470932006836],[-8.274690628051758,37.38862609863287],[-8.158059120178166,37.33362579345703],[-8.065702438354492,37.31897354125971],[-8.005199432373047,37.35839080810547],[-8.000263214111328,37.39752578735363],[-7.93809700012207,37.404045104980526],[-7.892955780029297,37.43381500244146],[-7.855494022369328,37.437980651855526],[-7.732138156890869,37.496685028076286],[-7.662359237670842,37.50577163696289],[-7.62022686004633,37.48988723754883],[-7.574721813201904,37.52899169921881],[-7.512472152709961,37.52630233764643],[-7.494328022003174,37.523326873779354],[-7.456223964691162,37.45019912719721],[-7.4618120193481445,37.407444000244254],[-7.440489768981934,37.391025543213004],[-7.441112995147705,37.30731582641613],[-7.42205810546875,37.27486038208019],[-7.406249046325684,37.17152786254894],[-7.4593048095703125,37.17736053466791],[-7.601250171661377,37.134582519531364],[-7.620417118072453,37.11041641235357],[-7.794027805328369,37.01514053344721],[-7.826251029968262,37.02736282348633],[-7.910973072052002,37.00041580200207],[-7.99652719497675,37.00847244262695],[-8.07913589477539,37.05598068237305],[-8.18475341796875,37.09056091308605],[-8.231427192687988,37.082988739013786]]]}},
{"type":"Feature","properties":{"ID_0":182,"ISO":"PRT","NAME_0":"Portugal","ID_1":10,"NAME_1":"Guarda","TYPE_1":"Distrito","ENGTYPE_1":"District","NL_NAME_1":"","VARNAME_1":""},"geometry":{"type":"Polygon","coordinates":[[[-6.931346893310547,41.02939987182617],[-6.859950065612736,40.95076370239252],[-6.838045120239258,40.89011764526367],[-6.803274154663029,40.84621047973644],[-6.8305230140686035,40.74294281005871],[-6.810766220092773,40.71686935424816],[-6.798898220062199,40.65530395507818],[-6.845355033874455,40.565944671630916],[-6.8008599281311035,40.55034255981451],[-6.795266151428166,40.511356353759766],[-6.849691867828369,40.4515113830567],[-6.838720798492432,40.41472244262701],[-6.7812151908873375,40.363792419433594],[-6.790332794189453,40.33421707153326],[-6.863920211791992,40.29617691040039],[-6.867990970611572,40.26433181762695],[-6.951418876647892,40.25756454467779],[-7.013679027557373,40.29006576538086],[-7.082963943481445,40.27828598022461],[-7.102531909942513,40.32086181640619],[-7.168613910674992,40.26781463623058],[-7.205585956573486,40.28576660156244],[-7.235732078552246,40.26206588745117],[-7.319065093994084,40.28071212768549],[-7.273392200469971,40.348907470703125],[-7.270390987396183,40.408050537109375],[-7.327566146850586,40.41075515747082],[-7.38411808013916,40.38240814208996],[-7.461634159088078,40.401828765869084],[-7.51649284362793,40.366477966308594],[-7.537196159362793,40.317836761474666],[-7.612915039062443,40.32189559936535],[-7.661197185516357,40.271240234375114],[-7.709965229034424,40.260757446289176],[-7.733748912811279,40.236885070800895],[-7.782391071319523,40.2299156188966],[-7.8181681632995605,40.28215026855469],[-7.765120983123666,40.31658935546881],[-7.7972679138183025,40.36164474487305],[-7.797164916992131,40.40504455566412],[-7.842558860778809,40.433273315429744],[-7.796943187713566,40.45742034912104],[-7.828310966491642,40.49854278564459],[-7.635334014892521,40.56803131103527],[-7.605922222137394,40.5652694702149],[-7.54206991195673,40.65938186645508],[-7.596808910369873,40.728664398193416],[-7.570696830749512,40.747516632080135],[-7.625399112701416,40.78400421142578],[-7.558442115783691,40.873184204101676],[-7.514051914215088,40.86933135986334],[-7.479112148284912,40.831954956054744],[-7.435965061187687,40.82429122924816],[-7.374159812927246,40.912502288818416],[-7.336186885833683,40.93405151367199],[-7.325262069702148,40.97195434570318],[-7.370756149291992,40.99194335937506],[-7.334894180297852,41.02231597900396],[-7.342770099639893,41.05750274658203],[-7.304561138153019,41.13951873779297],[-7.249491214752197,41.14499282836914],[-7.1611590385435875,41.127719879150504],[-7.147982120513916,41.156261444091854],[-7.087913990020695,41.131862640380916],[-7.101256847381535,41.07991027832037],[-7.010475158691349,41.04075622558594],[-6.931346893310547,41.02939987182617]]]}},
{"type":"Feature","properties":{"ID_0":182,"ISO":"PRT","NAME_0":"Portugal","ID_1":11,"NAME_1":"Leiria","TYPE_1":"Distrito","ENGTYPE_1":"District","NL_NAME_1":"","VARNAME_1":""},"geometry":{"type":"Polygon","coordinates":[[[-8.686387062072697,39.5788955688476],[-8.671475410461426,39.56175994873047],[-8.714479446411133,39.520793914795036],[-8.731568336486816,39.4798202514649],[-8.802313804626408,39.483001708984375],[-8.903431892394963,39.46600723266607],[-8.945701599121094,39.39106369018566],[-9.001552581787053,39.35476684570324],[-8.994505882263184,39.29669952392584],[-9.066384315490723,39.30984115600597],[-9.12307357788086,39.268657684326286],[-9.159539222717285,39.22154617309582],[-9.202392578124943,39.24768447875971],[-9.202818870544434,39.30296325683594],[-9.276455879211426,39.30803298950201],[-9.298749923705998,39.28375244140631],[-9.341251373290959,39.291900634765625],[-9.358880043029785,39.360374450683594],[-9.300415992736816,39.38513946533203],[-9.227916717529297,39.436248779296875],[-9.171832084655762,39.500938415527344],[-9.128701210021916,39.52866744995117],[-9.077362060546818,39.58569335937506],[-9.083749771118164,39.62152862548834],[-9.031805992126465,39.76625061035156],[-8.987408638000488,39.84673309326172],[-8.894027709960938,40.044345855713004],[-8.800462722778263,40.0125617980957],[-8.784306526184082,40.03632736206066],[-8.672210693359375,40.027206420898494],[-8.616233825683594,39.9915885925293],[-8.589536666870004,40.028099060058594],[-8.552368164062443,40.023960113525504],[-8.522838592529297,39.98361206054699],[-8.490616798400765,39.98611450195307],[-8.426013946533146,40.026557922363224],[-8.40221881866455,40.00093078613287],[-8.390396118164062,39.95122528076172],[-8.359291076660156,39.93560791015625],[-8.31871509552002,39.974678039550724],[-8.275806427001896,40.04540252685558],[-8.179098129272461,40.08973312377941],[-8.143742561340275,40.07278060913097],[-8.156821250915527,40.02735137939453],[-8.109966278076115,39.9715194702149],[-8.118680000305119,39.93408966064453],[-8.149169921874943,39.88534545898443],[-8.211854934692326,39.8503990173341],[-8.273726463317871,39.84314727783209],[-8.285090446472168,39.79576110839838],[-8.432132720947152,39.74004745483404],[-8.462540626525879,39.773113250732536],[-8.483137130737305,39.834503173828125],[-8.555877685546875,39.79169464111334],[-8.60266208648676,39.77871704101568],[-8.6348876953125,39.789890289306754],[-8.680382728576603,39.76777267456066],[-8.679059982299748,39.710086822509766],[-8.640046119689885,39.70115661621088],[-8.650469779968205,39.660091400146484],[-8.702213287353402,39.6359596252442],[-8.686387062072697,39.5788955688476]]]}},
{"type":"Feature","properties":{"ID_0":182,"ISO":"PRT","NAME_0":"Portugal","ID_1":12,"NAME_1":"Lisboa","TYPE_1":"Distrito","ENGTYPE_1":"District","NL_NAME_1":"","VARNAME_1":"Lisbon|Lisbona|Lisbonne|Lissabon"},"geometry":{"type":"Polygon","coordinates":[[[-9.14490032196045,38.70500564575207],[-9.214688301086426,38.691791534423885],[-9.286019325256348,38.696800231933594],[-9.31709194183344,38.677513122558594],[-9.392182350158691,38.702030181884766],[-9.420783042907601,38.69068908691406],[-9.46033668518055,38.69515991210943],[-9.486144065856934,38.70805358886719],[-9.471987724304142,38.75018310546875],[-9.500531196594181,38.78071212768566],[-9.444202423095703,38.87458419799816],[-9.415416717529297,38.943473815918026],[-9.42197036743164,39.07467651367193],[-9.359991073608342,39.17034149169916],[-9.339860916137638,39.225418090820426],[-9.341251373290959,39.291900634765625],[-9.298749923705998,39.28375244140631],[-9.276455879211426,39.30803298950201],[-9.202818870544434,39.30296325683594],[-9.202392578124943,39.24768447875971],[-9.159539222717285,39.22154617309582],[-9.12307357788086,39.268657684326286],[-9.066384315490723,39.30984115600597],[-8.994505882263184,39.29669952392584],[-8.962711334228516,39.255470275878906],[-8.911591529846191,39.234912872314396],[-8.88293743133545,39.25122070312494],[-8.835342407226506,39.225299835205135],[-8.822331428527832,39.18971252441412],[-8.888128280639592,39.185638427734375],[-8.904379844665527,39.16244125366211],[-8.873254776000863,39.13245391845703],[-8.807563781738224,39.10448455810558],[-8.781865119934025,39.0583877563476],[-8.842680931091309,39.02988052368164],[-8.911885261535645,38.88768005371088],[-8.969052314758244,38.82653808593756],[-8.994583129882756,38.88263702392584],[-9.019026756286621,38.890415191650504],[-9.066804885864258,38.85124969482416],[-9.087637901306096,38.81263732910162],[-9.10525894165039,38.72961044311535],[-9.14490032196045,38.70500564575207]]]}},
{"type":"Feature","properties":{"ID_0":182,"ISO":"PRT","NAME_0":"Portugal","ID_1":13,"NAME_1":"Madeira","TYPE_1":"Regiões autônoma","ENGTYPE_1":"Autonomous region","NL_NAME_1":"","VARNAME_1":""},"geometry":{"type":"MultiPolygon","coordinates":[[[[-16.5088214874267,32.53046035766624],[-16.493743896484375,32.48131179809599],[-16.536230087280273,32.55679702758795],[-16.539926528930607,32.5686683654788],[-16.5088214874267,32.53046035766624]]],[[[-17.16556739807129,32.868408203125284],[-17.114225387573185,32.827312469482536],[-17.05078125,32.80825424194347],[-16.98164558410639,32.826473236083984],[-16.90058135986328,32.8344612121582],[-16.861097335815373,32.806476593017635],[-16.857725143432617,32.797492980957145],[-16.81470108032221,32.76821899414068],[-16.81386375427246,32.76820755004894],[-16.811342239379826,32.767448425293196],[-16.724382400512695,32.74717712402344],[-16.689537048339844,32.75176239013672],[-16.68653488159174,32.7420654296875],[-16.746730804443303,32.73399353027338],[-16.77372169494629,32.690860748291016],[-16.822494506835938,32.64801788330078],[-16.866470336914062,32.64182281494152],[-16.89299964904785,32.64648056030279],[-16.919082641601562,32.641319274902344],[-16.9449462890625,32.63277816772472],[-17.10395431518549,32.67819213867193],[-17.212926864623967,32.7370338439942],[-17.244400024414062,32.783584594726506],[-17.245393753051758,32.78552627563482],[-17.246793746948185,32.78871917724621],[-17.265731811523324,32.81503677368187],[-17.196598052978516,32.86999511718744],[-17.16556739807129,32.868408203125284]]],[[[-16.302179336547795,33.0972785949707],[-16.29787635803217,33.08782958984375],[-16.293455123901367,33.075653076171875],[-16.37678909301752,33.02533340454113],[-16.37983322143549,33.05667495727539],[-16.377349853515568,33.05921936035156],[-16.37591934204096,33.06755447387695],[-16.368972778320256,33.082672119140796],[-16.302179336547795,33.0972785949707]]]]}},
{"type":"Feature","properties":{"ID_0":182,"ISO":"PRT","NAME_0":"Portugal","ID_1":14,"NAME_1":"Portalegre","TYPE_1":"Distrito","ENGTYPE_1":"District","NL_NAME_1":"","VARNAME_1":""},"geometry":{"type":"Polygon","coordinates":[[[-7.20378303527832,38.75151062011719],[-7.2324109077453045,38.78516387939459],[-7.211150169372559,38.80785751342768],[-7.245706081390381,38.84785842895519],[-7.325654029846191,38.82519149780285],[-7.346802234649658,38.7981224060058],[-7.395896911621094,38.81185913085943],[-7.419244766235352,38.848217010498104],[-7.422935962676945,38.90348434448248],[-7.466124057769775,38.926036834716854],[-7.452898979187012,38.96441650390625],[-7.491979122161865,38.98911666870117],[-7.564651966094914,38.95245361328131],[-7.604299068450928,38.953781127929744],[-7.625444889068547,38.92752075195324],[-7.698064804077148,38.91244506835949],[-7.823974132537842,38.89935302734375],[-7.875960826873779,38.908359527588004],[-7.925670146942139,38.97331619262701],[-8.009519577026367,38.945182800293026],[-8.013733863830566,38.9813804626466],[-8.04761600494379,39.00828933715832],[-8.120295524597168,39.00399017333996],[-8.152009010314941,39.02693176269531],[-8.227920532226506,38.98738861083996],[-8.260341644287053,39.01229858398443],[-8.290839195251408,39.0804328918457],[-8.34342956542963,39.10029220581055],[-8.298885345458928,39.162849426269645],[-8.233919143676758,39.18157196044933],[-8.151388168334904,39.24956512451172],[-8.134472846984863,39.2873992919923],[-8.08763313293457,39.27536010742193],[-8.02793121337885,39.33960342407238],[-8.029585838317871,39.36072158813482],[-7.96868896484375,39.38230895996094],[-7.939463138580322,39.409950256347656],[-7.9954400062561035,39.44825744628906],[-8.008898735046387,39.473205566406364],[-7.959406852722168,39.56127929687506],[-7.910102844238281,39.5481414794923],[-7.856470108032227,39.51391220092785],[-7.825108051299992,39.53736114501953],[-7.720778942108154,39.59509658813482],[-7.7148070335387615,39.62668609619146],[-7.673112869262695,39.64890670776373],[-7.648519039153996,39.62478256225586],[-7.579123973846379,39.65881347656244],[-7.541685104370117,39.663677215576115],[-7.499413013458252,39.58960342407232],[-7.466908931732178,39.5769500732423],[-7.426660060882568,39.53268432617199],[-7.388792991638184,39.524639129638615],[-7.382153987884465,39.491973876953125],[-7.29426813125599,39.45682144165045],[-7.322863101959172,39.381950378418026],[-7.310348987579346,39.34095764160162],[-7.231481075286808,39.278255462646484],[-7.248027801513615,39.25337219238281],[-7.221617221832275,39.1932945251466],[-7.132203102111703,39.16469955444347],[-7.144035816192627,39.108627319335994],[-7.105344772338867,39.099197387695256],[-7.028202056884709,39.11565017700207],[-6.980916023254338,39.08781814575207],[-6.9590721130370525,39.01730346679693],[-7.02626991271967,38.924510955810604],[-7.033034801483154,38.87882232666021],[-7.09638595581049,38.81596374511713],[-7.125417232513371,38.81532669067383],[-7.20378303527832,38.75151062011719]]]}},
{"type":"Feature","properties":{"ID_0":182,"ISO":"PRT","NAME_0":"Portugal","ID_1":15,"NAME_1":"Porto","TYPE_1":"Distrito","ENGTYPE_1":"District","NL_NAME_1":"","VARNAME_1":"Oporto"},"geometry":{"type":"Polygon","coordinates":[[[-8.690328598022404,41.16912078857422],[-8.71680545806879,41.203472137451286],[-8.722916603088322,41.25708389282221],[-8.762640953063908,41.37495040893549],[-8.786250114440918,41.41319274902338],[-8.775138854980412,41.47123718261719],[-8.746247291564941,41.46859359741222],[-8.650121688842773,41.419689178466854],[-8.602392196655217,41.34556961059582],[-8.537215232849121,41.34300231933588],[-8.501439094543457,41.36833953857433],[-8.455116271972543,41.375629425048885],[-8.394207000732422,41.361892700195256],[-8.328076362609806,41.36577224731457],[-8.303301811218262,41.342960357666016],[-8.222992897033635,41.40994262695324],[-8.165824890136719,41.40029907226568],[-8.146122932434025,41.36417770385748],[-8.086494445800724,41.32934951782238],[-8.035721778869629,41.318798065185604],[-7.9895548820495605,41.3466033935548],[-7.974152088165283,41.37519454956055],[-7.96532678604126,41.332164764404354],[-7.913753986358643,41.30551910400396],[-7.915085792541504,41.27428436279308],[-7.875686168670654,41.242156982421875],[-7.9118518829345135,41.11988830566406],[-7.951173782348633,41.12276077270519],[-8.052750587463322,41.089675903320426],[-8.094379425048828,41.10077285766607],[-8.146876335144043,41.08415985107433],[-8.208628654479924,41.09303665161144],[-8.263980865478459,41.065856933593864],[-8.287214279174748,41.07893753051752],[-8.352152824401855,41.04010391235357],[-8.44873046875,41.05346298217779],[-8.488737106323242,41.01289749145519],[-8.606048583984318,41.02569580078131],[-8.644963264465332,41.015972137451286],[-8.668473243713322,41.14014053344738],[-8.690328598022404,41.16912078857422]]]}},
{"type":"Feature","properties":{"ID_0":182,"ISO":"PRT","NAME_0":"Portugal","ID_1":16,"NAME_1":"Santarém","TYPE_1":"Distrito","ENGTYPE_1":"District","NL_NAME_1":"","VARNAME_1":""},"geometry":{"type":"Polygon","coordinates":[[[-8.686387062072697,39.5788955688476],[-8.702213287353402,39.6359596252442],[-8.650469779968205,39.660091400146484],[-8.640046119689885,39.70115661621088],[-8.679059982299748,39.710086822509766],[-8.680382728576603,39.76777267456066],[-8.6348876953125,39.789890289306754],[-8.60266208648676,39.77871704101568],[-8.555877685546875,39.79169464111334],[-8.483137130737305,39.834503173828125],[-8.462540626525879,39.773113250732536],[-8.432132720947152,39.74004745483404],[-8.285090446472168,39.79576110839838],[-8.232072830200138,39.76279830932623],[-8.23394870758051,39.65125274658203],[-8.134341239929142,39.611263275146484],[-8.053985595703068,39.61698150634771],[-8.077296257019043,39.65876388549805],[-8.03884506225586,39.74301147460943],[-7.957581996917725,39.736911773681754],[-7.949749946594238,39.67945861816406],[-7.848848819732666,39.62367630004883],[-7.811983108520451,39.56780242919933],[-7.825108051299992,39.53736114501953],[-7.856470108032227,39.51391220092785],[-7.910102844238281,39.5481414794923],[-7.959406852722168,39.56127929687506],[-8.008898735046387,39.473205566406364],[-7.9954400062561035,39.44825744628906],[-7.939463138580322,39.409950256347656],[-7.96868896484375,39.38230895996094],[-8.029585838317871,39.36072158813482],[-8.02793121337885,39.33960342407238],[-8.08763313293457,39.27536010742193],[-8.134472846984863,39.2873992919923],[-8.151388168334904,39.24956512451172],[-8.233919143676758,39.18157196044933],[-8.298885345458928,39.162849426269645],[-8.34342956542963,39.10029220581055],[-8.290839195251408,39.0804328918457],[-8.260341644287053,39.01229858398443],[-8.227920532226506,38.98738861083996],[-8.24293327331543,38.93814849853521],[-8.269928932189885,38.90717315673828],[-8.159498214721623,38.86513900756836],[-8.184583663940373,38.84926605224615],[-8.154566764831486,38.80924224853527],[-8.175615310668888,38.78266906738287],[-8.221803665161133,38.82861328125],[-8.249606132507324,38.817794799804744],[-8.301423072814941,38.86032485961914],[-8.338020324707031,38.84022903442394],[-8.380048751831055,38.853458404541016],[-8.419169425964355,38.8376579284668],[-8.471081733703613,38.79390335083019],[-8.500376701354924,38.807479858398494],[-8.54680347442627,38.7634391784668],[-8.60722541809082,38.77736663818365],[-8.596316337585392,38.84072494506836],[-8.647542953491211,38.80950164794922],[-8.70935916900629,38.825885772705135],[-8.753534317016545,38.742855072021484],[-8.79155158996582,38.734153747558594],[-8.833544731140137,38.76111221313488],[-8.908346176147404,38.74180603027344],[-8.925971984863281,38.759906768798885],[-8.931804656982422,38.797084808349666],[-8.969052314758244,38.82653808593756],[-8.911885261535645,38.88768005371088],[-8.842680931091309,39.02988052368164],[-8.781865119934025,39.0583877563476],[-8.807563781738224,39.10448455810558],[-8.873254776000863,39.13245391845703],[-8.904379844665527,39.16244125366211],[-8.888128280639592,39.185638427734375],[-8.822331428527832,39.18971252441412],[-8.835342407226506,39.225299835205135],[-8.88293743133545,39.25122070312494],[-8.911591529846191,39.234912872314396],[-8.962711334228516,39.255470275878906],[-8.994505882263184,39.29669952392584],[-9.001552581787053,39.35476684570324],[-8.945701599121094,39.39106369018566],[-8.903431892394963,39.46600723266607],[-8.802313804626408,39.483001708984375],[-8.731568336486816,39.4798202514649],[-8.714479446411133,39.520793914795036],[-8.671475410461426,39.56175994873047],[-8.686387062072697,39.5788955688476]]]}},
{"type":"Feature","properties":{"ID_0":182,"ISO":"PRT","NAME_0":"Portugal","ID_1":17,"NAME_1":"Setúbal","TYPE_1":"Distrito","ENGTYPE_1":"District","NL_NAME_1":"","VARNAME_1":""},"geometry":{"type":"Polygon","coordinates":[[[-8.783749580383244,38.42680740356445],[-8.721248626708984,38.44097137451166],[-8.755417823791447,38.48680496215832],[-8.801804542541504,38.480693817138786],[-8.883673667907601,38.52130126953125],[-8.93392276763916,38.48833465576172],[-9.064233779907227,38.43493270874035],[-9.134451866149902,38.42964553833008],[-9.220120429992676,38.41262435913097],[-9.184185028076115,38.48955154418945],[-9.189106941223145,38.555824279785156],[-9.21163082122797,38.6051979064942],[-9.259048461914006,38.66308593750006],[-9.180068969726506,38.6790771484375],[-9.104306221008187,38.644584655761776],[-9.012360572814885,38.70264053344732],[-9.044860839843693,38.71569442749035],[-8.946528434753418,38.761806488037166],[-8.925971984863281,38.759906768798885],[-8.908346176147404,38.74180603027344],[-8.833544731140137,38.76111221313488],[-8.79155158996582,38.734153747558594],[-8.753534317016545,38.742855072021484],[-8.70935916900629,38.825885772705135],[-8.647542953491211,38.80950164794922],[-8.596316337585392,38.84072494506836],[-8.60722541809082,38.77736663818365],[-8.54680347442627,38.7634391784668],[-8.490978240966797,38.76131057739252],[-8.531220436096135,38.69186401367193],[-8.569088935851994,38.67718887329113],[-8.656537055969181,38.60781478881836],[-8.639120101928654,38.54949188232433],[-8.53238391876215,38.52815246582031],[-8.497563362121525,38.548820495605526],[-8.47592830657959,38.516769409179744],[-8.423136711120549,38.520984649658146],[-8.369127273559513,38.545745849609375],[-8.335991859435978,38.506958007812614],[-8.283736228942871,38.4120979309082],[-8.322565078735352,38.37220382690441],[-8.197738647460938,38.34259033203125],[-8.164377212524357,38.31984710693371],[-8.129705429077148,38.26630401611328],[-8.129805564880371,38.22395706176769],[-8.284335136413574,38.1865806579591],[-8.2912015914917,38.13909912109375],[-8.336983680725098,38.142745971679744],[-8.40774917602539,38.06639862060547],[-8.347538948059025,38.01722717285156],[-8.295440673828068,37.993217468261776],[-8.299488067626953,37.89910888671875],[-8.33613109588623,37.864574432373104],[-8.462068557739258,37.86560821533209],[-8.551310539245549,37.84729385375988],[-8.583757400512695,37.79937744140625],[-8.58765983581543,37.756965637207145],[-8.68343734741211,37.75327301025396],[-8.726470947265625,37.80862808227539],[-8.792975425720158,37.81956863403326],[-8.793126106262207,37.869430541992244],[-8.809893608093262,37.92975997924805],[-8.887945175170898,37.9581413269043],[-8.860695838928223,37.98097229003906],[-8.794306755065861,38.12597274780268],[-8.77791690826416,38.19430541992199],[-8.77680492401123,38.28180694580084],[-8.800416946411133,38.397640228271484],[-8.783749580383244,38.42680740356445]]]}},
{"type":"Feature","properties":{"ID_0":182,"ISO":"PRT","NAME_0":"Portugal","ID_1":18,"NAME_1":"Viana do Castelo","TYPE_1":"Distrito","ENGTYPE_1":"District","NL_NAME_1":"","VARNAME_1":"Vianna do Castello"},"geometry":{"type":"Polygon","coordinates":[[[-8.164990425109863,41.818115234375114],[-8.306785583496037,41.76118087768566],[-8.414167404174805,41.758998870849666],[-8.51372241973877,41.721305847168026],[-8.521745681762695,41.67958068847662],[-8.604116439819279,41.634319305420036],[-8.643220901489201,41.6543807983399],[-8.724178314208984,41.63382720947277],[-8.756795883178654,41.6143913269043],[-8.80986213684082,41.612136840820256],[-8.82932281494135,41.67675018310558],[-8.860695838928223,41.70402908325195],[-8.880695343017578,41.75319290161133],[-8.864583969116211,41.810695648193416],[-8.873032569885197,41.870193481445256],[-8.81836032867426,41.911296844482365],[-8.747705459594727,41.943149566650334],[-8.74594497680664,41.964553833007926],[-8.661334991455078,42.00332641601557],[-8.636755943298283,42.0474967956543],[-8.5468111038208,42.05399703979492],[-8.518028259277287,42.07956314086914],[-8.429669380187931,42.07236480712902],[-8.331864356994629,42.083839416503906],[-8.253607749938965,42.136688232421875],[-8.195360183715763,42.1482048034668],[-8.18612289428711,42.072589874267635],[-8.118673324584904,42.08230972290045],[-8.084427833557072,42.04733657836914],[-8.086008071899414,42.016494750976506],[-8.162994384765568,41.98269653320324],[-8.216875076293945,41.91315841674816],[-8.161748886108398,41.86097717285162],[-8.164990425109863,41.818115234375114]]]}},
{"type":"Feature","properties":{"ID_0":182,"ISO":"PRT","NAME_0":"Portugal","ID_1":19,"NAME_1":"Vila Real","TYPE_1":"Distrito","ENGTYPE_1":"District","NL_NAME_1":"","VARNAME_1":"Villa Real"},"geometry":{"type":"Polygon","coordinates":[[[-7.200468063354492,41.87949752807617],[-7.208745002746582,41.80921554565441],[-7.171195030212402,41.7698974609375],[-7.24289083480835,41.6421470642091],[-7.2583818435668945,41.5631942749024],[-7.229093074798527,41.52279281616211],[-7.283936023712158,41.51562118530279],[-7.30764102935791,41.4612770080567],[-7.365305900573674,41.4404182434082],[-7.348082065582275,41.35162734985363],[-7.431878089904785,41.21079635620117],[-7.543065071105957,41.1883277893067],[-7.574638843536377,41.16069412231451],[-7.664660930633545,41.16270065307617],[-7.698645114898682,41.14150238037115],[-7.86051702499384,41.15844726562506],[-7.9118518829345135,41.11988830566406],[-7.875686168670654,41.242156982421875],[-7.915085792541504,41.27428436279308],[-7.913753986358643,41.30551910400396],[-7.96532678604126,41.332164764404354],[-7.974152088165283,41.37519454956055],[-7.94167518615717,41.42998123168951],[-7.938171863555908,41.47735595703131],[-7.861333847045898,41.51178359985357],[-7.810657024383545,41.57334518432617],[-7.829501152038574,41.60222244262701],[-7.879362106323242,41.58823394775402],[-7.96646785736084,41.60392379760748],[-8.00299930572504,41.62088394165045],[-7.997269153594857,41.687831878662166],[-8.094255447387695,41.70740890502924],[-8.06120586395258,41.76358032226557],[-8.05121994018549,41.81947326660156],[-8.012578964233398,41.83353424072277],[-7.988607883453312,41.86758041381847],[-7.9212799072265625,41.88181686401373],[-7.888208866119328,41.86607742309582],[-7.845162868499699,41.88127899169922],[-7.7333288192748455,41.892276763916016],[-7.7041168212890625,41.9073371887207],[-7.65384578704834,41.88119888305664],[-7.583326816558724,41.87871170043945],[-7.611523151397705,41.84670257568371],[-7.573887825012207,41.829715728759766],[-7.452474117279053,41.865077972412166],[-7.4305620193481445,41.821376800537166],[-7.389939785003662,41.842300415039176],[-7.31528997421259,41.842540740966854],[-7.200468063354492,41.87949752807617]]]}},
{"type":"Feature","properties":{"ID_0":182,"ISO":"PRT","NAME_0":"Portugal","ID_1":20,"NAME_1":"Viseu","TYPE_1":"Distrito","ENGTYPE_1":"District","NL_NAME_1":"","VARNAME_1":"Vizeu"},"geometry":{"type":"Polygon","coordinates":[[[-7.304561138153019,41.13951873779297],[-7.342770099639893,41.05750274658203],[-7.334894180297852,41.02231597900396],[-7.370756149291992,40.99194335937506],[-7.325262069702148,40.97195434570318],[-7.336186885833683,40.93405151367199],[-7.374159812927246,40.912502288818416],[-7.435965061187687,40.82429122924816],[-7.479112148284912,40.831954956054744],[-7.514051914215088,40.86933135986334],[-7.558442115783691,40.873184204101676],[-7.625399112701416,40.78400421142578],[-7.570696830749512,40.747516632080135],[-7.596808910369873,40.728664398193416],[-7.54206991195673,40.65938186645508],[-7.605922222137394,40.5652694702149],[-7.635334014892521,40.56803131103527],[-7.828310966491642,40.49854278564459],[-7.884239196777287,40.47314834594738],[-7.930622100830078,40.429122924804744],[-8.003739356994572,40.39157104492199],[-8.038994789123535,40.386699676513786],[-8.11300945281971,40.34141540527355],[-8.20863246917719,40.34140396118164],[-8.250845909118652,40.323223114013786],[-8.297381401062012,40.35699462890631],[-8.356213569641056,40.36722946166998],[-8.354867935180664,40.408855438232536],[-8.318705558776799,40.45672988891613],[-8.324973106384277,40.491794586181754],[-8.282843589782658,40.50917053222656],[-8.289183616638184,40.568786621093864],[-8.308414459228459,40.59640884399414],[-8.245376586914006,40.61640548706049],[-8.294792175292912,40.64567947387701],[-8.297637939453068,40.69433975219732],[-8.333592414855957,40.737007141113395],[-8.269071578979435,40.76754760742199],[-8.23675537109375,40.827491760253906],[-8.127950668334904,40.89814758300787],[-8.14290809631342,40.978557586670036],[-8.237236976623535,41.017833709716854],[-8.263980865478459,41.065856933593864],[-8.208628654479924,41.09303665161144],[-8.146876335144043,41.08415985107433],[-8.094379425048828,41.10077285766607],[-8.052750587463322,41.089675903320426],[-7.951173782348633,41.12276077270519],[-7.9118518829345135,41.11988830566406],[-7.86051702499384,41.15844726562506],[-7.698645114898682,41.14150238037115],[-7.664660930633545,41.16270065307617],[-7.574638843536377,41.16069412231451],[-7.543065071105957,41.1883277893067],[-7.431878089904785,41.21079635620117],[-7.388576984405518,41.19287490844732],[-7.356201171875,41.147487640380916],[-7.304561138153019,41.13951873779297]]]}}]}